id;phone;firstname;lastname;level
1;1-410-935-9327;invoice scale Designer;vortals Future-proofed;66805
2;(508) 368-2658;Chips parsing User-friendly;green Incredible Wooden Table Bacon;39013
3;993-801-1415;Intelligent;Small Metal Computer;67943
4;989-323-4905;Supervisor cutting-edge;dynamic Research;12150
5;1-277-578-4941 x562;port Frozen;connect;53593
6;749.841.5166;Cheese;quantifying hacking maroon;66828
7;1-013-610-9688;Investment Account Incredible Plastic Computer;open-source Coordinator Soap;2618
8;(633) 408-0312 x9387;Cayman Islands Dollar Investment Account;Supervisor 1080p;36653
9;271.244.8108;user-facing;Industrial;85899
10;(762) 246-2525;bandwidth;Practical Metal Chair solution-oriented quantifying;13307
