id;login;password_hash;first_name;last_name;email;image_url;activated;lang_key;created_by;last_modified_by
5;farm;$2a$10$VEjxo0jq2YG9Rbk2HmX9S.k1uZBGYUHdUcid3g/vfiEl7lwWgOH/K;Farm;User;farm@localhost;;true;de;system;system
6;helper;$2a$10$VEjxo0jq2YG9Rbk2HmX9S.k1uZBGYUHdUcid3g/vfiEl7lwWgOH/K;Helper;helper;helper@localhost;;true;de;system;system
