id;date;working_hours
1;2020-04-20;35365
2;2020-04-19;13086
3;2020-04-19;44019
4;2020-04-19;38227
5;2020-04-20;23869
6;2020-04-19;92583
7;2020-04-20;89527
8;2020-04-20;61523
9;2020-04-20;73908
10;2020-04-20;4445
