{
  "properties": [
    {
      "name": "picture.service.headerPictureHeight",
      "type": "java.lang.Integer",
      "description": "Description for picture.service.headerPictureheight."
    },
    {
      "name": "picture.service.headerPictureWidth",
      "type": "java.lang.Integer",
      "description": "Description for picture.service.headerPicturewidth."
    },
    {
      "name": "picture.service.profilePictureHeight",
      "type": "java.lang.Integer",
      "description": "Description for picture.service.profilePictureHeight."
    },
    {
      "name": "picture.service.profilePictureWidth",
      "type": "java.lang.Integer",
      "description": "Description for picture.service.profilePictureWidth."
    },
    {
      "name": "aws.s3Region",
      "type": "java.lang.String",
      "description": "Description for aws.s3Region."
    },
    {
      "name": "aws.s3AccessKey",
      "type": "java.lang.String",
      "description": "Description for aws.s3AccessKey."
    },
    {
      "name": "aws.s3SecretAccessKey",
      "type": "java.lang.String",
      "description": "Description for aws.s3SecretAccessKey."
    },
    {
      "name": "aws.s3Bucket",
      "type": "java.lang.String",
      "description": "Description for aws.s3Bucket."
    }
  ] }
