{
    "name": "Task",
    "fields": [
        {
            "fieldName": "title",
            "fieldType": "String"
        },
        {
            "fieldName": "description",
            "fieldType": "String"
        },
        {
            "fieldName": "howToFindUs",
            "fieldType": "String"
        },
        {
            "fieldName": "phone",
            "fieldType": "String"
        },
        {
            "fieldName": "contactEmail",
            "fieldType": "String"
        },
        {
            "fieldName": "active",
            "fieldType": "boolean"
        }
    ],
    "relationships": [
        {
            "relationshipType": "one-to-many",
            "otherEntityName": "workday",
            "otherEntityRelationshipName": "task",
            "relationshipName": "requestedDays"
        },
        {
            "relationshipType": "many-to-one",
            "otherEntityName": "address",
            "otherEntityRelationshipName": "task",
            "relationshipName": "address",
            "otherEntityField": "id"
        },
        {
            "relationshipType": "many-to-one",
            "otherEntityName": "farm",
            "otherEntityRelationshipName": "task",
            "relationshipName": "farm",
            "otherEntityField": "id"
        }
    ],
    "changelogDate": "20200420123700",
    "entityTableName": "task",
    "dto": "no",
    "pagination": "no",
    "service": "no",
    "jpaMetamodelFiltering": false,
    "fluentMethods": true,
    "readOnly": false,
    "embedded": false,
    "clientRootFolder": "",
    "applications": "*"
}
