{
    "name": "ZipGeoData",
    "fields": [
        {
            "fieldName": "country",
            "fieldType": "String"
        },
        {
            "fieldName": "latitude",
            "fieldType": "BigDecimal"
        },
        {
            "fieldName": "longitude",
            "fieldType": "BigDecimal"
        },
        {
            "fieldName": "zip",
            "fieldType": "String"
        }
    ],
    "relationships": [],
    "changelogDate": "20200424192400",
    "entityTableName": "zip_geo_data",
    "dto": "no",
    "pagination": "no",
    "service": "no",
    "jpaMetamodelFiltering": false,
    "fluentMethods": true,
    "readOnly": false,
    "embedded": false,
    "clientRootFolder": "",
    "applications": "*"
}